# Blender v2.76 (sub 0) OBJ File: 'Blender_Scene_Ready.blend'
# www.blender.org
mtllib Bits_Asteroids.mtl
o Sphere.001
v 0.735242 2.920979 2.626071
v 0.735242 2.367616 2.821732
v -0.778519 2.367616 2.626071
v -0.778519 2.920979 2.626071
v 0.735242 2.367614 3.384271
v 0.410042 3.281341 3.865287
v -0.453320 3.281341 3.865287
v -0.778519 2.367614 3.865287
v 0.791199 -2.787172 1.717471
v 0.791199 -3.340536 1.913132
v -0.722562 -3.340536 1.717470
v -0.722562 -2.787172 1.717471
v 0.791199 -3.340537 2.475670
v 0.466000 -2.426811 2.956687
v -0.397362 -2.426811 2.956687
v -0.722562 -3.340538 2.956687
v -2.234050 -1.307993 1.215321
v -2.001471 -1.861358 1.260403
v -2.582834 -1.861358 2.421194
v -2.582834 -1.307993 2.421194
v -1.332792 -1.861358 1.390017
v -0.835946 -0.947630 1.759904
v -1.034872 -0.947630 2.447665
v -1.109801 -1.861359 2.706721
v 1.512291 1.581236 1.894956
v 2.045850 1.434513 2.090616
v 1.644482 -0.025067 1.894954
v 1.110924 0.121655 1.894954
v 2.045850 1.434512 2.653155
v 1.078600 1.363223 3.134172
v 0.849684 0.530762 3.134171
v 1.644482 -0.025069 3.134171
v 2.851220 -2.669348 3.408559
v 2.686560 -3.222712 3.550382
v 1.753996 -3.222711 2.554833
v 1.753996 -2.669346 2.554833
v 2.213153 -3.222712 3.958128
v 1.572636 -2.308985 4.123380
v 0.946843 -2.308985 3.636463
v 0.711128 -3.222712 3.453058
v 4.127522 -0.360231 -0.387441
v 4.548097 -0.719855 -0.191780
v 3.564326 -1.870362 -0.387441
v 3.143751 -1.510738 -0.387441
v 4.548097 -0.719855 0.370759
v 3.642292 -0.373199 0.851776
v 3.081205 -1.029381 0.851775
v 3.564326 -1.870362 0.851775
v 0.589469 -0.806247 -4.638328
v 0.840778 -1.021136 -5.050910
v -0.321940 -2.018630 -5.084576
v -0.394302 -1.956754 -4.638329
v 1.355259 -1.461056 -4.954123
v 1.464352 -1.982215 -4.134508
v 0.903266 -2.638398 -4.134509
v 0.811410 -2.987731 -4.871361
v -0.291106 -2.669346 -1.240370
v -0.291106 -3.222710 -1.044709
v -1.804867 -3.222710 -1.240370
v -1.804867 -2.669346 -1.240370
v -0.291106 -3.222710 -0.482170
v -0.616306 -2.308983 -0.001152
v -1.479668 -2.308983 -0.001152
v -1.804867 -3.222710 -0.001152
v -4.544133 -2.728364 -3.489175
v -4.277121 -3.442204 -3.362970
v -5.520532 -3.442205 -2.104767
v -5.520532 -2.728364 -2.104767
v -3.509440 -3.442204 -3.000124
v -3.062770 -2.263496 -2.392449
v -3.619652 -2.263497 -1.602863
v -3.829411 -3.442205 -1.305453
v -0.145649 2.887883 -4.783001
v 0.313156 2.438954 -4.503828
v -0.914915 1.183865 -4.783002
v -1.373720 1.632795 -4.783002
v 0.313156 2.438954 -3.701185
v -0.708258 2.910604 -3.014865
v -1.408679 2.194776 -3.014865
v -0.914915 1.183864 -3.014865
v -1.091282 2.221928 0.783208
v -1.091282 1.668563 0.978870
v -2.605043 1.668563 0.783208
v -2.605043 2.221928 0.783208
v -1.091282 1.668563 1.541408
v -1.416482 2.582291 2.022427
v -2.279844 2.582291 2.022427
v -2.605043 1.668563 2.022427
v -4.230067 2.221928 -0.993343
v -4.230067 1.668563 -0.797682
v -5.743828 1.668563 -0.993343
v -5.743828 2.221928 -0.993343
v -4.230067 1.668563 -0.235143
v -4.555267 2.582291 0.245875
v -5.418629 2.582291 0.245875
v -5.743828 1.668563 0.245875
v 1.761899 1.773882 -4.360942
v 1.223573 1.721482 -4.143123
v 1.989133 1.685627 -3.056703
v 2.442940 1.514459 -3.274794
v 0.980576 1.078713 -4.143899
v 1.668438 0.190730 -4.271341
v 2.056865 0.042771 -3.651864
v 1.453837 0.269674 -3.058412
v 1.868895 1.097543 0.783208
v 1.351284 1.293224 0.978870
v 1.886581 2.709179 0.783208
v 2.404192 2.513498 0.783208
v 1.351284 1.293224 1.541408
v 2.320971 1.274299 2.022426
v 2.626274 2.081879 2.022427
v 1.886581 2.709178 2.022427
v 3.809241 3.455843 -0.993343
v 3.685728 2.916439 -0.797682
v 2.210157 3.254314 -0.993343
v 2.333669 3.793720 -0.993343
v 3.685728 2.916439 -0.235143
v 3.572680 3.879701 0.245875
v 2.731098 4.072405 0.245875
v 2.210157 3.254314 0.245875
vt 0.870354 0.714660
vt 0.884882 0.743052
vt 0.810550 0.775456
vt 0.797995 0.749005
vt 0.816226 0.587747
vt 0.819504 0.647658
vt 0.778235 0.667246
vt 0.741959 0.630948
vt 0.729468 0.551832
vt 0.810556 0.551832
vt 0.878577 0.658169
vt 0.892535 0.691743
vt 0.733782 0.692887
vt 0.772330 0.763096
vt 0.445076 0.867351
vt 0.459604 0.895744
vt 0.385272 0.928147
vt 0.372717 0.901696
vt 0.390948 0.740438
vt 0.394226 0.800349
vt 0.352957 0.819937
vt 0.316681 0.783639
vt 0.304189 0.704523
vt 0.385277 0.704523
vt 0.453299 0.810860
vt 0.467257 0.844434
vt 0.308504 0.845578
vt 0.347052 0.915787
vt 0.782786 0.315434
vt 0.811179 0.300905
vt 0.843582 0.375237
vt 0.817131 0.387792
vt 0.655873 0.369562
vt 0.715784 0.366283
vt 0.735372 0.407553
vt 0.699074 0.443828
vt 0.619958 0.456320
vt 0.619958 0.375232
vt 0.726295 0.307210
vt 0.759868 0.293252
vt 0.761013 0.452006
vt 0.831222 0.413458
vt 0.461259 0.583571
vt 0.449499 0.613218
vt 0.376117 0.578715
vt 0.387720 0.551832
vt 0.439349 0.648132
vt 0.416823 0.703744
vt 0.371141 0.703910
vt 0.353758 0.655626
vt 0.478812 0.693328
vt 0.481144 0.609248
vt 0.523251 0.703910
vt 0.559062 0.627801
vt 0.304189 0.642342
vt 0.348002 0.570541
vt 0.870354 0.938897
vt 0.884882 0.967290
vt 0.810550 0.999693
vt 0.797995 0.973242
vt 0.816226 0.811984
vt 0.819504 0.871895
vt 0.778235 0.891483
vt 0.741959 0.855185
vt 0.729468 0.776069
vt 0.810556 0.776069
vt 0.878577 0.882406
vt 0.892535 0.915980
vt 0.733782 0.917124
vt 0.772330 0.987334
vt 0.703110 0.061103
vt 0.688581 0.032710
vt 0.762913 0.000307
vt 0.775468 0.026758
vt 0.757237 0.188016
vt 0.753959 0.128105
vt 0.795228 0.108517
vt 0.831504 0.144815
vt 0.843996 0.223931
vt 0.762908 0.223931
vt 0.694886 0.117594
vt 0.680928 0.084020
vt 0.839681 0.082876
vt 0.801134 0.012666
vt 0.157376 0.539462
vt 0.145616 0.569109
vt 0.072235 0.534606
vt 0.083837 0.507723
vt 0.135466 0.604023
vt 0.112940 0.659634
vt 0.067258 0.659801
vt 0.049875 0.611517
vt 0.174929 0.649219
vt 0.177262 0.565139
vt 0.219369 0.659801
vt 0.255179 0.583692
vt 0.000307 0.598233
vt 0.044119 0.526432
vt 0.548287 0.124900
vt 0.537988 0.094715
vt 0.616203 0.073325
vt 0.624829 0.101305
vt 0.583623 0.258273
vt 0.588985 0.198512
vt 0.632640 0.185055
vt 0.663325 0.226187
vt 0.523044 0.061569
vt 0.583284 0.000307
vt 0.532035 0.179624
vt 0.523044 0.144394
vt 0.680315 0.166066
vt 0.652252 0.091047
vt 0.345315 0.141221
vt 0.304189 0.140023
vt 0.313696 0.035852
vt 0.351401 0.038077
vt 0.522431 0.158807
vt 0.452649 0.125319
vt 0.456120 0.066492
vt 0.519687 0.048007
vt 0.404089 0.185592
vt 0.432814 0.292639
vt 0.330093 0.281492
vt 0.357459 0.180532
vt 0.454725 0.000307
vt 0.351401 0.000307
vt 0.218204 0.093218
vt 0.179779 0.094849
vt 0.184240 0.000307
vt 0.218204 0.000307
vt 0.157404 0.141653
vt 0.190612 0.208051
vt 0.156414 0.248530
vt 0.100693 0.227584
vt 0.054446 0.141603
vt 0.103737 0.038496
vt 0.239303 0.228961
vt 0.303576 0.129880
vt 0.000307 0.116853
vt 0.073094 0.023847
vt 0.025550 0.373737
vt 0.015250 0.343552
vt 0.093466 0.322162
vt 0.102091 0.350142
vt 0.060886 0.507110
vt 0.066248 0.447349
vt 0.109903 0.433892
vt 0.140588 0.475024
vt 0.000307 0.310405
vt 0.060547 0.249143
vt 0.009297 0.428461
vt 0.000307 0.393231
vt 0.157578 0.414902
vt 0.129515 0.339883
vt 0.436217 0.426625
vt 0.446517 0.456810
vt 0.368301 0.478200
vt 0.359676 0.450220
vt 0.400881 0.293252
vt 0.395519 0.353013
vt 0.351865 0.366471
vt 0.321179 0.325338
vt 0.461460 0.489957
vt 0.401220 0.551219
vt 0.452470 0.371901
vt 0.461460 0.407131
vt 0.304189 0.385460
vt 0.332252 0.460479
vt 0.696974 0.586228
vt 0.728854 0.587157
vt 0.721485 0.667909
vt 0.692256 0.666184
vt 0.559675 0.572595
vt 0.613769 0.598555
vt 0.611078 0.644158
vt 0.561802 0.658487
vt 0.643250 0.775560
vt 0.612160 0.695464
vt 0.692256 0.695464
vt 0.679609 0.775560
vt 0.651413 0.551832
vt 0.687560 0.555755
vt 0.061103 0.801301
vt 0.032710 0.815830
vt 0.000307 0.741498
vt 0.026758 0.728943
vt 0.188016 0.747173
vt 0.128105 0.750451
vt 0.108517 0.709182
vt 0.144815 0.672906
vt 0.223931 0.660414
vt 0.223931 0.741502
vt 0.117594 0.809524
vt 0.084021 0.823482
vt 0.082876 0.664729
vt 0.012666 0.703277
vt 0.594102 0.426625
vt 0.604401 0.456810
vt 0.526185 0.478200
vt 0.517560 0.450220
vt 0.558766 0.293252
vt 0.553404 0.353013
vt 0.509749 0.366471
vt 0.479063 0.325338
vt 0.619345 0.489957
vt 0.559105 0.551219
vt 0.610354 0.371901
vt 0.619345 0.407131
vt 0.462074 0.385460
vt 0.490136 0.460479
vn 0.038200 -0.184800 -0.982000
vn -0.024700 -0.166000 -0.985800
vn 0.142000 -0.097100 -0.985100
vn 0.069600 -0.252200 -0.965200
vn 0.095800 -0.126400 0.987300
vn 0.098700 -0.418700 0.902800
vn 0.398100 -0.296500 0.868100
vn 0.237700 -0.168200 0.956700
vn -0.172400 -0.984600 -0.029200
vn 0.077700 -0.996300 -0.037300
vn 0.067100 -0.994800 0.076800
vn -0.007400 -0.995400 0.095200
vn 0.996100 0.087700 0.001400
vn 0.959600 0.280400 -0.025000
vn 0.955900 0.271000 0.113500
vn 0.973200 0.168700 0.156400
vn 0.007100 0.858000 -0.513600
vn -0.126000 0.909800 -0.395500
vn -0.014400 0.965900 -0.258600
vn 0.086900 0.958400 -0.271900
vn -0.972700 0.232100 0.005500
vn -0.998800 -0.016400 0.046900
vn -0.954100 0.232700 0.188700
vn -0.947400 0.277400 0.159500
vn -0.917400 -0.217600 -0.333200
vn -0.940400 -0.197900 -0.276500
vn -0.890800 -0.128500 -0.435900
vn -0.890200 -0.282200 -0.357500
vn 0.981000 -0.175100 0.083100
vn 0.880500 -0.467800 0.075900
vn 0.916700 -0.332500 -0.221500
vn 0.975600 -0.213300 -0.051600
vn -0.055200 -0.984600 0.166000
vn -0.025600 -0.996300 -0.082200
vn 0.091600 -0.994800 -0.044800
vn 0.091800 -0.995400 0.026000
vn 0.142700 0.063600 -0.987700
vn 0.122000 0.250900 -0.960300
vn 0.249700 0.242000 -0.937600
vn 0.299900 0.139700 -0.943700
vn -0.453400 0.880900 -0.136200
vn -0.368000 0.929200 0.033400
vn -0.206900 0.977200 -0.047600
vn -0.194100 0.970000 -0.146700
vn -0.209700 0.194700 0.958200
vn -0.180100 -0.056600 0.982000
vn -0.029100 0.190900 0.981200
vn -0.054000 0.243100 0.968500
vn 0.188300 -0.012200 -0.982000
vn 0.153500 -0.067800 -0.985800
vn 0.131200 0.111200 -0.985100
vn 0.261600 0.000300 -0.965200
vn 0.147200 0.058800 0.987300
vn 0.429800 -0.015900 0.902800
vn 0.391400 0.305200 0.868100
vn 0.225200 0.184600 0.956700
vn 0.903600 -0.427300 -0.029200
vn 0.981200 -0.189300 -0.037300
vn 0.977000 -0.199100 0.076800
vn 0.957800 -0.271100 0.095100
vn 0.179500 0.983700 0.001400
vn -0.015900 0.999600 -0.025000
vn -0.007800 0.993500 0.113600
vn 0.095300 0.983100 0.156400
vn -0.825400 0.234400 -0.513600
vn -0.910600 0.119700 -0.395600
vn -0.935100 0.242200 -0.258600
vn -0.901100 0.337900 -0.271900
vn -0.481700 -0.876300 0.005500
vn -0.249000 -0.967400 0.046900
vn -0.477300 -0.858200 0.188700
vn -0.518700 -0.840000 0.159500
vn 0.640400 -0.202100 -0.741000
vn 0.595000 -0.183000 -0.782600
vn 0.725400 -0.114200 -0.678800
vn 0.654000 -0.268700 -0.707200
vn -0.514600 -0.140200 0.845900
vn -0.447200 -0.430500 0.784000
vn -0.196500 -0.301100 0.933100
vn -0.378200 -0.174800 0.909100
vn -0.114500 -0.984600 -0.132300
vn 0.084200 -0.996300 0.017900
vn -0.005800 -0.994800 0.101800
vn -0.076500 -0.995400 0.057100
vn 0.676200 0.073500 0.733100
vn 0.666300 0.261000 0.698500
vn 0.566400 0.250500 0.785200
vn 0.542500 0.147800 0.827000
vn 0.344000 0.870700 -0.351600
vn 0.141700 0.916400 -0.374500
vn 0.133600 0.970900 -0.198600
vn 0.221800 0.964400 -0.143700
vn -0.629500 0.213800 -0.747000
vn -0.683700 -0.038100 -0.728800
vn -0.757900 0.213800 -0.616300
vn -0.732000 0.261400 -0.629200
vn 0.165300 -0.091100 -0.982000
vn 0.110100 -0.126700 -0.985800
vn 0.166100 0.044900 -0.985100
vn 0.236900 -0.111000 -0.965200
vn 0.158300 -0.009300 0.987300
vn 0.382300 -0.197100 0.902800
vn 0.484000 0.109900 0.868100
vn 0.282300 0.071300 0.956700
vn 0.636300 -0.770900 -0.029200
vn 0.807600 -0.588500 -0.037300
vn 0.799700 -0.595500 0.076800
vn 0.751800 -0.652500 0.095200
vn 0.580700 0.814100 0.001300
vn 0.410500 0.911500 -0.025000
vn 0.415200 0.902600 0.113500
vn 0.504200 0.849300 0.156400
vn -0.647500 0.563000 -0.513600
vn -0.773400 0.495500 -0.395500
vn -0.743400 0.616800 -0.258600
vn -0.671900 0.688900 -0.271900
vn -0.808500 -0.588500 0.005500
vn -0.636600 -0.769800 0.046900
vn -0.796900 -0.573900 0.188700
vn -0.826600 -0.539800 0.159500
vn -0.644600 0.615200 -0.453800
vn -0.691900 0.576200 -0.435100
vn -0.594900 0.714100 -0.369000
vn -0.598500 0.616700 -0.511400
vn 0.837200 -0.545100 -0.043900
vn 0.796100 -0.498600 -0.342900
vn 0.943600 -0.250300 -0.216900
vn 0.909700 -0.406800 -0.083500
vn -0.022900 -0.208800 -0.977700
vn 0.125100 -0.007600 -0.992100
vn 0.208400 -0.091300 -0.973800
vn 0.173800 -0.158500 -0.972000
vn 0.601400 0.786200 0.142000
vn 0.542300 0.777100 0.319500
vn 0.637100 0.701800 0.318800
vn 0.705300 0.668900 0.234700
vn -0.416400 0.375400 0.828000
vn -0.420600 0.191300 0.886900
vn -0.246000 0.192200 0.950000
vn -0.190400 0.277200 0.941800
vn -0.663500 -0.695600 0.275400
vn -0.623000 -0.781300 0.037800
vn -0.513900 -0.805000 0.296400
vn -0.538200 -0.769700 0.343300
vn -0.764900 -0.207900 -0.609600
vn -0.805100 -0.188400 -0.562500
vn -0.706800 -0.119000 -0.697300
vn -0.732000 -0.273100 -0.624200
vn 0.895400 -0.167200 0.412800
vn 0.802600 -0.460300 0.379600
vn 0.938100 -0.329600 0.106500
vn 0.935000 -0.208800 0.286700
vn -0.105700 -0.984600 0.139400
vn 0.003500 -0.996300 -0.086100
vn 0.100400 -0.994800 -0.017500
vn 0.082300 -0.995400 0.048100
vn 0.392000 0.067600 -0.917500
vn 0.360900 0.256700 -0.896600
vn 0.480600 0.248600 -0.840900
vn 0.530100 0.146400 -0.835200
vn -0.402300 0.875900 -0.266300
vn -0.365500 0.926500 -0.089400
vn -0.187300 0.975000 -0.119100
vn -0.144200 0.967400 -0.208100
vn -0.436300 0.199900 0.877300
vn -0.418400 -0.050000 0.906900
vn -0.266500 0.196100 0.943700
vn -0.287800 0.247600 0.925100
vn 0.171600 -0.155600 -0.972800
vn 0.139600 -0.154800 -0.978000
vn 0.206800 0.040600 -0.977500
vn 0.253600 -0.132800 -0.958100
vn 0.199300 -0.025500 0.979600
vn 0.431000 -0.231200 0.872200
vn 0.562200 0.078000 0.823300
vn 0.344500 0.072100 0.936000
vn 0.558400 -0.829200 -0.023700
vn 0.777000 -0.627100 -0.054600
vn 0.764300 -0.638000 0.093300
vn 0.710000 -0.697200 0.099100
vn 0.626400 0.778900 -0.031300
vn 0.453600 0.888100 -0.073900
vn 0.476800 0.875700 0.075500
vn 0.588000 0.793800 0.155200
vn -0.604700 0.623900 -0.495000
vn -0.754200 0.558200 -0.345900
vn -0.723500 0.668600 -0.171800
vn -0.645300 0.730500 -0.223700
vn -0.849100 -0.526900 -0.036400
vn -0.667100 -0.744700 0.018200
vn -0.834000 -0.529700 0.154600
vn -0.868200 -0.471600 0.154400
vn 0.140600 0.987500 0.070900
vn 0.190100 0.975500 0.110400
vn 0.165900 0.984000 -0.065200
vn 0.063400 0.995600 0.069300
vn -0.552400 -0.832200 -0.047400
vn -0.751800 -0.652000 0.098000
vn -0.769400 -0.602300 -0.212800
vn -0.626800 -0.764700 -0.149500
vn -0.669200 0.267400 0.693300
vn -0.796400 0.348600 0.494200
vn -0.834600 0.231000 0.500100
vn -0.803100 0.201300 0.560900
vn -0.305900 0.169600 -0.936800
vn -0.128100 0.118000 -0.984700
vn -0.182700 0.002200 -0.983200
vn -0.292900 -0.009600 -0.956100
vn 0.836900 0.174600 -0.518700
vn 0.910500 0.017000 -0.413100
vn 0.838900 -0.104100 -0.534200
vn 0.786100 -0.069400 -0.614200
vn 0.564600 -0.192800 0.802500
vn 0.346600 -0.151400 0.925700
vn 0.489400 -0.360400 0.794100
vn 0.542400 -0.349800 0.763800
vn -0.186400 0.029700 -0.982000
vn -0.146500 0.081800 -0.985800
vn -0.141000 -0.098500 -0.985100
vn -0.260500 0.024100 -0.965200
vn -0.152100 -0.044900 0.987300
vn -0.426500 0.055800 0.902800
vn -0.418100 -0.267500 0.868100
vn -0.241400 -0.162800 0.956700
vn -0.860000 0.509400 -0.029200
vn -0.959400 0.279700 -0.037300
vn -0.954200 0.289000 0.076800
vn -0.928500 0.358900 0.095200
vn -0.270200 -0.962800 0.001300
vn -0.077100 -0.996700 -0.025000
vn -0.084500 -0.989900 0.113500
vn -0.186300 -0.970000 0.156400
vn 0.800000 -0.310100 -0.513600
vn 0.895500 -0.203800 -0.395500
vn 0.908600 -0.328100 -0.258500
vn 0.865700 -0.420200 -0.271900
vn 0.561000 0.827800 0.005500
vn 0.337800 0.940000 0.046900
vn 0.555000 0.810200 0.188700
vn 0.594500 0.788100 0.159500
vn -0.004100 -0.188700 -0.982000
vn -0.061100 -0.156300 -0.985800
vn 0.116800 -0.126300 -0.985100
vn 0.011600 -0.261400 -0.965200
vn 0.065200 -0.144600 0.987300
vn 0.002700 -0.430100 0.902800
vn 0.321900 -0.377800 0.868100
vn 0.194100 -0.217000 0.956700
vn -0.387800 -0.921300 -0.029200
vn -0.146700 -0.988500 -0.037300
vn -0.156700 -0.984700 0.076800
vn -0.229400 -0.968700 0.095100
vn 0.990600 -0.136800 0.001400
vn 0.997900 0.059100 -0.025000
vn 0.992200 0.050800 0.113500
vn 0.986300 -0.052800 0.156400
vn 0.198400 0.834800 -0.513600
vn 0.080200 0.914900 -0.395500
vn 0.201600 0.944700 -0.258500
vn 0.298700 0.914800 -0.271900
vn -0.896300 0.443300 0.005500
vn -0.977200 0.206900 0.046900
vn -0.878100 0.439700 0.188700
vn -0.861600 0.481900 0.159500
usemtl Material1
s off
f 1/1/1 2/2/2 3/3/3 4/4/4
f 5/5/5 6/6/6 7/7/7 8/8/8
f 5/5/9 8/8/10 3/9/11 2/10/12
f 6/6/13 5/11/14 2/12/15 1/1/16
f 7/7/17 6/6/18 1/1/19 4/4/20
f 8/13/21 7/7/22 4/4/23 3/14/24
f 9/15/1 10/16/2 11/17/3 12/18/4
f 13/19/5 14/20/6 15/21/7 16/22/8
f 13/19/9 16/22/10 11/23/11 10/24/12
f 14/20/13 13/25/14 10/26/15 9/15/16
f 15/21/17 14/20/18 9/15/19 12/18/20
f 16/27/21 15/21/22 12/18/23 11/28/24
f 17/29/25 18/30/26 19/31/27 20/32/28
f 21/33/29 22/34/30 23/35/31 24/36/32
f 21/33/33 24/36/34 19/37/35 18/38/36
f 22/34/37 21/39/38 18/40/39 17/29/40
f 23/35/41 22/34/42 17/29/43 20/32/44
f 24/41/45 23/35/46 20/32/47 19/42/48
f 25/43/49 26/44/50 27/45/51 28/46/52
f 29/47/53 30/48/54 31/49/55 32/50/56
f 29/47/57 32/50/58 27/45/59 26/44/60
f 30/51/61 29/47/62 26/44/63 25/52/64
f 31/53/65 30/51/66 25/52/67 28/54/68
f 32/50/69 31/55/70 28/56/71 27/45/72
f 33/57/73 34/58/74 35/59/75 36/60/76
f 37/61/77 38/62/78 39/63/79 40/64/80
f 37/61/81 40/64/82 35/65/83 34/66/84
f 38/62/85 37/67/86 34/68/87 33/57/88
f 39/63/89 38/62/90 33/57/91 36/60/92
f 40/69/93 39/63/94 36/60/95 35/70/96
f 41/71/97 42/72/98 43/73/99 44/74/100
f 45/75/101 46/76/102 47/77/103 48/78/104
f 45/75/105 48/78/106 43/79/107 42/80/108
f 46/76/109 45/81/110 42/82/111 41/71/112
f 47/77/113 46/76/114 41/71/115 44/74/116
f 48/83/117 47/77/118 44/74/119 43/84/120
f 49/85/121 50/86/122 51/87/123 52/88/124
f 53/89/125 54/90/126 55/91/127 56/92/128
f 53/89/129 56/92/130 51/87/131 50/86/132
f 54/93/133 53/89/134 50/86/135 49/94/136
f 55/95/137 54/93/138 49/94/139 52/96/140
f 56/92/141 55/97/142 52/98/143 51/87/144
f 57/99/1 58/100/2 59/101/3 60/102/4
f 61/103/5 62/104/6 63/105/7 64/106/8
f 61/107/9 64/108/10 59/101/11 58/100/12
f 62/104/13 61/109/14 58/110/15 57/99/16
f 63/105/17 62/104/18 57/99/19 60/102/20
f 64/111/21 63/105/22 60/102/23 59/112/24
f 65/113/145 66/114/146 67/115/147 68/116/148
f 69/117/149 70/118/150 71/119/151 72/120/152
f 69/121/153 72/122/154 67/123/155 66/124/156
f 70/118/157 69/121/158 66/124/159 65/113/160
f 71/119/161 70/118/162 65/113/163 68/116/164
f 72/125/165 71/119/166 68/116/167 67/126/168
f 73/127/169 74/128/170 75/129/171 76/130/172
f 77/131/173 78/132/174 79/133/175 80/134/176
f 77/131/177 80/135/178 75/136/179 74/128/180
f 78/132/181 77/131/182 74/128/183 73/127/184
f 79/137/185 78/132/186 73/127/187 76/138/188
f 80/135/189 79/139/190 76/140/191 75/136/192
f 81/141/1 82/142/2 83/143/3 84/144/4
f 85/145/5 86/146/6 87/147/7 88/148/8
f 85/149/9 88/150/10 83/143/11 82/142/12
f 86/146/13 85/151/14 82/152/15 81/141/16
f 87/147/17 86/146/18 81/141/19 84/144/20
f 88/153/21 87/147/22 84/144/23 83/154/24
f 89/155/1 90/156/2 91/157/3 92/158/4
f 93/159/5 94/160/6 95/161/7 96/162/8
f 93/163/9 96/164/10 91/157/11 90/156/12
f 94/160/13 93/165/14 90/166/15 89/155/16
f 95/161/17 94/160/18 89/155/19 92/158/20
f 96/167/21 95/161/22 92/158/23 91/168/24
f 97/169/193 98/170/194 99/171/195 100/172/196
f 101/173/197 102/174/198 103/175/199 104/176/200
f 101/177/201 104/178/202 99/179/203 98/180/204
f 102/174/205 101/181/206 98/182/207 97/169/208
f 103/175/209 102/174/210 97/169/211 100/172/212
f 104/178/213 103/175/214 100/172/215 99/179/216
f 105/183/217 106/184/218 107/185/219 108/186/220
f 109/187/221 110/188/222 111/189/223 112/190/224
f 109/187/225 112/190/226 107/191/227 106/192/228
f 110/188/229 109/193/230 106/194/231 105/183/232
f 111/189/233 110/188/234 105/183/235 108/186/236
f 112/195/237 111/189/238 108/186/239 107/196/240
f 113/197/241 114/198/242 115/199/243 116/200/244
f 117/201/245 118/202/246 119/203/247 120/204/248
f 117/205/249 120/206/250 115/199/251 114/198/252
f 118/202/253 117/207/254 114/208/255 113/197/256
f 119/203/257 118/202/258 113/197/259 116/200/260
f 120/209/261 119/203/262 116/200/263 115/210/264
